{
  "ip": "shinobi-app",
  "port": 8080,
  "db": {
    "ip": "shinobi-app",
    "host": "shinobi-mysql",
    "user": "majesticflame",
    "password": "password",
    "database": "ccio",
    "port":3306
  },
  "mail":{
    "service": "gmail",
    "auth": {
        "user": "your_email@gmail.com",
        "pass": "your_password_or_app_specific_password"
        }
  },
  "cron":{
      "key":"change_this_to_something_very_random__just_anything_other_than_this",
      "interval":"0.25"
  },
  "pluginKeys":{
      "Motion":"change_this_to_something_very_random____make_sure_to_match__/plugins/motion/conf.json",
      "OpenCV":"change_this_to_something_very_random____make_sure_to_match__/plugins/opencv/conf.json",
      "OpenALPR":"SomeOpenALPRkeySoPeopleDontMessWithYourShinobi"
  }
}
